* Total gross contributions:
   AFUXXX              28.4581   E -    28.4581   P -     0.0000
   AFF1XX               9.5325   E -     9.5325   P -     0.0000
   AFF2XX               9.5325   E -     9.5325   P -     0.0000
   AFF3XX               9.5325   E -     9.5325   P -     0.0000
   AFF4XX               9.5325   E -     9.5325   P -     0.0000
   AFF5XX               9.5325   E -     9.5325   P -     0.0000
   AFF6XX               9.5325   E -     9.5325   P -     0.0000
   Polarization:     0.3472
