Bi atom - QZ basis
1 15 1
1s
2s
2p
3s
3p
3d
4s
4p
4d
4f
5s
5p
5d
6s
6p 3
ANG 1 7
-1
MCP 1 2
MCDF 24
2 0 3 0 14
83 209.0
NUC 3
GAUSS 4
1S  34
2P- 31
2P  31 2P- 1 31
3D- 21
3D  21 3D- 1 21
4F- 14
4F  14 4F- 1 14
 6.0327973E+07
 1.6059400E+07
 5.5002311E+06
 2.0965944E+06
 8.7614365E+05
 3.8775710E+05
 1.8029442E+05
 8.6844149E+04
 4.3076212E+04
 2.1842909E+04
 1.1293409E+04
 5.9507204E+03
 3.2014852E+03
 1.7641591E+03
 1.0016015E+03
 5.9564241E+02
 3.9672091E+02
 2.5845574E+02
 1.6068287E+02
 9.8444637E+01
 6.0146010E+01
 3.7934344E+01
 2.3912645E+01
 1.5276004E+01
 9.2087298E+00
 5.5574031E+00
 3.2023544E+00
 1.9180785E+00
 1.1731977E+00
 7.4463019E-01
 4.7115520E-01
 2.3902743E-01
 1.1886460E-01
 5.6025919E-02
 7.2548229E+07
 2.5127961E+07
 8.9943363E+06
 3.3978472E+06
 1.3406152E+06
 5.4867118E+05
 2.3165676E+05
 1.0069143E+05
 4.5050536E+04
 2.0784822E+04
 9.9000264E+03
 4.8664210E+03
 2.4655886E+03
 1.2855834E+03
 6.8790131E+02
 3.7620602E+02
 2.0950837E+02
 1.1794969E+02
 6.6689215E+01
 3.8460927E+01
 2.2109515E+01
 1.2482731E+01
 7.1083213E+00
 4.0003720E+00
 2.2284663E+00
 1.2125620E+00
 6.4365302E-01
 3.1488676E-01
 1.5158717E-01
 7.1607861E-02
 3.2913977E-02
 1.6463954E+05
 3.8667080E+04
 1.2458903E+04
 4.7981120E+03
 2.0858623E+03
 9.8974360E+02
 5.0061517E+02
 2.6520654E+02
 1.4561957E+02
 8.1829425E+01
 4.6861624E+01
 2.7006142E+01
 1.5460270E+01
 8.8034943E+00
 4.9821735E+00
 2.7644317E+00
 1.4934857E+00
 8.0288750E-01
 4.4714894E-01
 2.4637901E-01
 1.0017191E-01
 2.5971422E+03
 8.6492152E+02
 3.6744541E+02
 1.7603323E+02
 9.0982272E+01
 4.8997622E+01
 2.7207540E+01
 1.5262097E+01
 8.5485499E+00
 4.7315946E+00
 2.5336398E+00
 1.2638986E+00
 4.4762345E-01
 1.7508119E-01
AL
END
