**DIRAC
.WAVE FUNCTION
.ANALYZE
.PROPERTIES
**INTEGRAL
*READIN
.UNCONT
**WAVE FUNCTION
.SCF
*SCF
.CLOSED SHELL
4 6
**ANALYZE
.MULPOP
**PROPERTIES
*EXPECTATION VALUE
.ORBANA
.OPERATOR
 'XXSECMOM'
.OPERATOR
 'YYSECMOM'
.OPERATOR
 'ZZSECMOM'
**MOLECULE
*BASIS
.DEFAULT
 dyall.2zp
**END OF
