**DIRAC                                                                                             
.ANALYZE                                                                                            
.WAVE FUNCTION                                                                                      
**INTEGRALS
*READIN
.UNCONT
**WAVE FUNCTION                                                                                     
.SCF                                                                                                
*SCF
.CLOSED SHELL                                                                                                
4
.OPEN SHELL
1
4/6
**ANALYZE
.MULPOP
**END OF
